mipstest.vcd
$date
	Tue Feb 11 16:35:47 2014
$end
$version
	Icarus Verilog
$end
$timescale
	1s
$end
$scope module mips_testbench $end
$var wire 12 ! chip_data [11:0] $end
$var wire 1 " chip_data_enable $end
$var wire 1 # chip_hsync $end
$var wire 1 $ chip_reset $end
$var wire 1 % chip_vsync $end
$var wire 4 & leds [3:0] $end
$var wire 1 ' scl $end
$var wire 1 ( sda $end
$var wire 1 ) xclk $end
$var wire 1 * xclk_n $end
$var reg 1 + clk $end
$var reg 1 , play $end
$var reg 1 - rst $end
$scope module dut $end
$var wire 8 . b [7:0] $end
$var wire 8 / b_cb [7:0] $end
$var wire 1 0 bottom_btn $end
$var wire 1 1 center_btn $end
$var wire 12 2 chip_data [11:0] $end
$var wire 1 " chip_data_enable $end
$var wire 1 # chip_hsync $end
$var wire 1 $ chip_reset $end
$var wire 1 % chip_vsync $end
$var wire 1 3 clk $end
$var wire 1 4 debug_select $end
$var wire 14 5 display_data [13:0] $end
$var wire 1 6 display_we $end
$var wire 8 7 g [7:0] $end
$var wire 8 8 g_cb [7:0] $end
$var wire 27 9 led_counter [26:0] $end
$var wire 4 : leds [3:0] $end
$var wire 1 ; left_btn $end
$var wire 1 < memclk $end
$var wire 1 = mipsclk $end
$var wire 8 > r [7:0] $end
$var wire 8 ? r_cb [7:0] $end
$var wire 1 @ right_btn $end
$var wire 1 A rst $end
$var wire 1 B run $end
$var wire 1 C run_toggle $end
$var wire 1 ' scl $end
$var wire 1 ( sda $end
$var wire 1 D step $end
$var wire 8 E sw [7:0] $end
$var wire 1 F top_btn $end
$var wire 1 G trap $end
$var wire 8 H v_b [7:0] $end
$var wire 8 I v_g [7:0] $end
$var wire 8 J v_r [7:0] $end
$var wire 6 K vga_rgb [5:0] $end
$var wire 11 L x [10:0] $end
$var wire 1 ) xclk $end
$var wire 1 * xclk_n $end
$var wire 10 M y [9:0] $end
$scope module run_button_unit $end
$var wire 1 N button_debounced $end
$var wire 1 O button_sync $end
$var wire 1 3 clk $end
$var wire 1 ; in $end
$var wire 1 C out $end
$var wire 1 A rst $end
$scope module sync $end
$var wire 1 3 clk $end
$var wire 1 P ff1_out $end
$var wire 1 Q ff2_out $end
$var wire 1 ; in $end
$var wire 1 O out $end
$scope module ff1 $end
$var wire 1 3 clk $end
$var wire 1 ; d $end
$var reg 1 R q $end
$upscope $end
$scope module ff2 $end
$var wire 1 3 clk $end
$var wire 1 P d $end
$var reg 1 S q $end
$upscope $end
$scope module ff3 $end
$var wire 1 3 clk $end
$var wire 1 Q d $end
$var reg 1 T q $end
$upscope $end
$upscope $end
$scope module debounce $end
$var wire 1 3 clk $end
$var wire 20 U counter_out [19:0] $end
$var wire 2 V current_state_q [1:0] $end
$var wire 1 W en $end
$var wire 1 O in $end
$var wire 1 A rst $end
$var reg 1 X counter_enable $end
$var reg 1 Y counter_reset $end
$var reg 2 Z next_state_d [1:0] $end
$var reg 1 [ out $end
$scope module counter $end
$var wire 1 3 clk $end
$var wire 20 \ d [19:0] $end
$var wire 1 ] en $end
$var wire 1 ^ r $end
$var reg 20 _ q [19:0] $end
$upscope $end
$scope module state $end
$var wire 1 3 clk $end
$var wire 2 ` d [1:0] $end
$var wire 1 W en $end
$var wire 1 A r $end
$var reg 2 a q [1:0] $end
$upscope $end
$upscope $end
$scope module one_pulse $end
$var wire 1 3 clk $end
$var wire 1 N in $end
$var wire 1 b last_value $end
$var wire 1 C out $end
$var wire 1 A rst $end
$scope module last_value_storage $end
$var wire 1 3 clk $end
$var wire 1 N d $end
$var wire 1 A r $end
$var reg 1 c q $end
$upscope $end
$upscope $end
$upscope $end
$scope module step_button_unit $end
$var wire 1 d button_debounced $end
$var wire 1 e button_sync $end
$var wire 1 3 clk $end
$var wire 1 @ in $end
$var wire 1 D out $end
$var wire 1 A rst $end
$scope module sync $end
$var wire 1 3 clk $end
$var wire 1 f ff1_out $end
$var wire 1 g ff2_out $end
$var wire 1 @ in $end
$var wire 1 e out $end
$scope module ff1 $end
$var wire 1 3 clk $end
$var wire 1 @ d $end
$var reg 1 h q $end
$upscope $end
$scope module ff2 $end
$var wire 1 3 clk $end
$var wire 1 f d $end
$var reg 1 i q $end
$upscope $end
$scope module ff3 $end
$var wire 1 3 clk $end
$var wire 1 g d $end
$var reg 1 j q $end
$upscope $end
$upscope $end
$scope module debounce $end
$var wire 1 3 clk $end
$var wire 20 k counter_out [19:0] $end
$var wire 2 l current_state_q [1:0] $end
$var wire 1 m en $end
$var wire 1 e in $end
$var wire 1 A rst $end
$var reg 1 n counter_enable $end
$var reg 1 o counter_reset $end
$var reg 2 p next_state_d [1:0] $end
$var reg 1 q out $end
$scope module counter $end
$var wire 1 3 clk $end
$var wire 20 r d [19:0] $end
$var wire 1 s en $end
$var wire 1 t r $end
$var reg 20 u q [19:0] $end
$upscope $end
$scope module state $end
$var wire 1 3 clk $end
$var wire 2 v d [1:0] $end
$var wire 1 m en $end
$var wire 1 A r $end
$var reg 2 w q [1:0] $end
$upscope $end
$upscope $end
$scope module one_pulse $end
$var wire 1 3 clk $end
$var wire 1 d in $end
$var wire 1 x last_value $end
$var wire 1 D out $end
$var wire 1 A rst $end
$scope module last_value_storage $end
$var wire 1 3 clk $end
$var wire 1 d d $end
$var wire 1 A r $end
$var reg 1 y q $end
$upscope $end
$upscope $end
$upscope $end
$scope module trap_button_unit $end
$var wire 1 z button_debounced $end
$var wire 1 { button_sync $end
$var wire 1 3 clk $end
$var wire 1 0 in $end
$var wire 1 G out $end
$var wire 1 A rst $end
$scope module sync $end
$var wire 1 3 clk $end
$var wire 1 | ff1_out $end
$var wire 1 } ff2_out $end
$var wire 1 0 in $end
$var wire 1 { out $end
$scope module ff1 $end
$var wire 1 3 clk $end
$var wire 1 0 d $end
$var reg 1 ~ q $end
$upscope $end
$scope module ff2 $end
$var wire 1 3 clk $end
$var wire 1 | d $end
$var reg 1 !" q $end
$upscope $end
$scope module ff3 $end
$var wire 1 3 clk $end
$var wire 1 } d $end
$var reg 1 "" q $end
$upscope $end
$upscope $end
$scope module debounce $end
$var wire 1 3 clk $end
$var wire 20 #" counter_out [19:0] $end
$var wire 2 $" current_state_q [1:0] $end
$var wire 1 %" en $end
$var wire 1 { in $end
$var wire 1 A rst $end
$var reg 1 &" counter_enable $end
$var reg 1 '" counter_reset $end
$var reg 2 (" next_state_d [1:0] $end
$var reg 1 )" out $end
$scope module counter $end
$var wire 1 3 clk $end
$var wire 20 *" d [19:0] $end
$var wire 1 +" en $end
$var wire 1 ," r $end
$var reg 20 -" q [19:0] $end
$upscope $end
$scope module state $end
$var wire 1 3 clk $end
$var wire 2 ." d [1:0] $end
$var wire 1 %" en $end
$var wire 1 A r $end
$var reg 2 /" q [1:0] $end
$upscope $end
$upscope $end
$scope module one_pulse $end
$var wire 1 3 clk $end
$var wire 1 z in $end
$var wire 1 0" last_value $end
$var wire 1 G out $end
$var wire 1 A rst $end
$scope module last_value_storage $end
$var wire 1 3 clk $end
$var wire 1 z d $end
$var wire 1 A r $end
$var reg 1 1" q $end
$upscope $end
$upscope $end
$upscope $end
$scope module run_dff $end
$var wire 1 3 clk $end
$var wire 1 2" d $end
$var wire 1 A r $end
$var reg 1 3" q $end
$upscope $end
$scope module clk_div $end
$var wire 1 3 clk $end
$var wire 1 4" d $end
$var wire 1 5" r $end
$var reg 1 6" q $end
$upscope $end
$scope module cpu $end
$var wire 32 7" alu_op_x [31:0] $end
$var wire 32 8" alu_op_y [31:0] $end
$var wire 4 9" alu_opcode [3:0] $end
$var wire 1 :" alu_overflow $end
$var wire 32 ;" alu_result [31:0] $end
$var wire 1 <" branch_en $end
$var wire 1 = clk $end
$var wire 32 =" controller_data [31:0] $end
$var wire 14 >" display_data [13:0] $end
$var wire 1 6 display_we $end
$var wire 1 ?" en $end
$var wire 32 @" instr [31:0] $end
$var wire 1 A" jump_en $end
$var wire 1 B" jump_reg_en $end
$var wire 32 C" mem_read_data [31:0] $end
$var wire 1 D" mem_read_en $end
$var wire 1 E" mem_write_en $end
$var wire 1 < memclk $end
$var wire 32 F" pc [31:0] $end
$var wire 5 G" reg_write_addr [4:0] $end
$var wire 32 H" reg_write_data [31:0] $end
$var wire 1 I" reg_write_en $end
$var wire 5 J" rs_addr [4:0] $end
$var wire 32 K" rs_data [31:0] $end
$var wire 1 L" rst $end
$var wire 5 M" rt_addr [4:0] $end
$var wire 32 N" rt_data [31:0] $end
$var wire 1 G trap $end
$scope module if_stage $end
$var wire 1 <" branch_en $end
$var wire 1 = clk $end
$var wire 1 ?" en $end
$var wire 32 O" inc_pc [31:0] $end
$var wire 32 P" instr [31:0] $end
$var wire 1 A" jump_en $end
$var wire 1 B" jump_reg_en $end
$var wire 32 Q" jump_reg_pc [31:0] $end
$var wire 32 R" pc [31:0] $end
$var wire 1 L" rst $end
$var wire 1 S" trap_en $end
$var wire 32 T" trap_pc [31:0] $end
$var reg 32 U" next_pc [31:0] $end
$scope module pc_reg $end
$var wire 1 = clk $end
$var wire 32 V" d [31:0] $end
$var wire 1 ?" en $end
$var wire 1 L" r $end
$var reg 32 W" q [31:0] $end
$upscope $end
$scope module instr_mem $end
$var wire 9 X" addr [8:0] $end
$var wire 32 Y" dout [31:0] $end
$upscope $end
$upscope $end
$scope module d_stage $end
$var wire 1 Z" BGEZAL $end
$var wire 1 [" BLTZAL $end
$var wire 32 \" alu_op_x [31:0] $end
$var wire 32 ]" alu_op_y [31:0] $end
$var wire 32 ^" alu_result [31:0] $end
$var wire 6 _" funct [5:0] $end
$var wire 32 `" imm_sign_extend [31:0] $end
$var wire 32 a" imm_zero_extend [31:0] $end
$var wire 16 b" immediate [15:0] $end
$var wire 32 c" instr [31:0] $end
$var wire 1 d" isLUI $end
$var wire 1 e" isSLL $end
$var wire 1 f" isSLLV $end
$var wire 1 g" isSRA $end
$var wire 1 h" isSRAV $end
$var wire 1 i" isSRL $end
$var wire 1 j" isSRLV $end
$var wire 1 k" isShift $end
$var wire 1 l" isVarShift $end
$var wire 1 m" is_branch_instr $end
$var wire 1 A" jump_en $end
$var wire 1 n" jump_no_link $end
$var wire 1 B" jump_reg_en $end
$var wire 1 o" jump_with_link $end
$var wire 1 D" mem_read_en $end
$var wire 1 E" mem_write_en $end
$var wire 6 p" op [5:0] $end
$var wire 32 q" pc [31:0] $end
$var wire 5 r" rd_addr [4:0] $end
$var wire 5 s" reg_write_addr [4:0] $end
$var wire 1 I" reg_write_en $end
$var wire 5 t" rs_addr [4:0] $end
$var wire 32 u" rs_data [31:0] $end
$var wire 5 v" rt_addr [4:0] $end
$var wire 32 w" rt_data [31:0] $end
$var wire 5 x" shamt [4:0] $end
$var wire 32 y" shift_amount [31:0] $end
$var wire 1 z" use_imm_operand $end
$var reg 4 {" alu_opcode [3:0] $end
$var reg 1 |" branch_en $end
$var reg 32 }" imm_ext [31:0] $end
$upscope $end
$scope module x_stage $end
$var wire 32 ~" alu_op_x [31:0] $end
$var wire 32 !# alu_op_x_signed [31:0] $end
$var wire 32 "# alu_op_y [31:0] $end
$var wire 32 ## alu_op_y_signed [31:0] $end
$var wire 4 $# alu_opcode [3:0] $end
$var reg 1 %# alu_overflow $end
$var reg 32 &# alu_result [31:0] $end
$upscope $end
$scope module m_stage $end
$var wire 32 '# addr [31:0] $end
$var wire 1 < clk $end
$var wire 32 (# controller_data [31:0] $end
$var wire 32 )# data_in [31:0] $end
$var wire 32 *# data_out [31:0] $end
$var wire 14 +# display_data [13:0] $end
$var wire 1 6 display_we $end
$var wire 32 ,# dram_data [31:0] $end
$var wire 1 -# dram_we $end
$var wire 1 .# isControllerAddr $end
$var wire 1 /# isDisplayAddr $end
$var wire 1 0# we $end
$scope module dmem $end
$var wire 10 1# addr [9:0] $end
$var wire 1 < clk $end
$var wire 32 2# din [31:0] $end
$var wire 1 -# we $end
$var reg 32 3# dout [31:0] $end
$upscope $end
$upscope $end
$scope module w_stage $end
$var wire 1 = clk $end
$var wire 5 4# rs_addr [4:0] $end
$var wire 32 5# rs_data [31:0] $end
$var wire 5 6# rt_addr [4:0] $end
$var wire 32 7# rt_data [31:0] $end
$var wire 1 8# we $end
$var wire 5 9# write_addr [4:0] $end
$var wire 32 :# write_data [31:0] $end
$upscope $end
$upscope $end
$scope module led_div $end
$var wire 1 3 clk $end
$var wire 27 ;# d [26:0] $end
$var reg 27 <# q [26:0] $end
$upscope $end
$scope module ctrl $end
$var wire 8 =# b [7:0] $end
$var wire 12 ># chip_data [11:0] $end
$var wire 1 " chip_data_enable $end
$var wire 1 # chip_hsync $end
$var wire 1 $ chip_reset $end
$var wire 1 % chip_vsync $end
$var wire 1 3 clk $end
$var wire 1 ?# en $end
$var wire 8 @# g [7:0] $end
$var wire 8 A# r [7:0] $end
$var wire 1 A rst $end
$var wire 1 B# valid_data $end
$var wire 11 C# x [10:0] $end
$var wire 1 ) xclk $end
$var wire 1 * xclk_n $end
$var wire 10 D# y [9:0] $end
$var reg 24 E# accum [23:0] $end
$var integer 32 F# file [31:0] $end
$var integer 32 G# naccum [31:0] $end
$scope module gen_sync $end
$var wire 1 3 clk $end
$var wire 1 ?# en $end
$var wire 1 # hsync $end
$var wire 1 A rst $end
$var wire 1 B# valid_data $end
$var wire 1 H# valid_h $end
$var wire 1 I# valid_v $end
$var wire 1 % vsync $end
$var reg 11 J# hsync_counter [10:0] $end
$var reg 11 K# pixel_counter [10:0] $end
$var reg 11 L# x [10:0] $end
$var reg 10 M# y [9:0] $end
$upscope $end
$scope module make_chip_data $end
$var wire 8 N# b [7:0] $end
$var wire 1 3 clk $end
$var wire 8 O# g [7:0] $end
$var wire 8 P# r [7:0] $end
$var wire 1 B# valid $end
$var reg 12 Q# chip_data [11:0] $end
$var reg 1 R# chip_data_enable $end
$var reg 24 S# pixel [23:0] $end
$upscope $end
$upscope $end
$scope module mips_disp $end
$var wire 6 T# block_x_read [5:0] $end
$var wire 6 U# block_x_write [5:0] $end
$var wire 5 V# block_y_read [4:0] $end
$var wire 5 W# block_y_write [4:0] $end
$var wire 1 = clk $end
$var wire 3 X# color [2:0] $end
$var wire 14 Y# display_data [13:0] $end
$var wire 3 Z# out_color [2:0] $end
$var wire 11 [# read_addr [10:0] $end
$var wire 1 \# valid $end
$var wire 6 ]# vga_rgb [5:0] $end
$var wire 1 6 we $end
$var wire 11 ^# write_addr [10:0] $end
$upscope $end
$scope module i2c_controller $end
$var wire 1 3 clk $end
$var wire 1 _# done $end
$var wire 1 A rst $end
$var wire 1 ' scl $end
$var wire 1 `# scl_logic $end
$var wire 1 ( sda $end
$var reg 3 a# packet_index [2:0] $end
$var reg 14 b# scl_counter [13:0] $end
$var reg 1 c# sda_logic $end
$var reg 28 d# sda_shift [27:0] $end
$var reg 5 e# state [4:0] $end
$upscope $end
$scope module tp $end
$var wire 11 f# x [10:0] $end
$var wire 10 g# y [9:0] $end
$var reg 8 h# b [7:0] $end
$var reg 8 i# g [7:0] $end
$var reg 8 j# r [7:0] $end
$upscope $end
$upscope $end
$upscope $end
$enddefinitions $end
#0
$dumpvars
bx j#
bx i#
bx h#
bx g#
bx f#
bx e#
bx d#
xc#
bx b#
bx a#
x`#
x_#
bx ^#
bx ]#
1\#
bx [#
bx Z#
bx Y#
bx X#
bx W#
bx V#
bx U#
bx T#
bx S#
xR#
bx Q#
bx P#
bx O#
bx N#
bx M#
bx L#
bx K#
bx J#
xI#
xH#
bx G#
b10000000000000000000000000000011 F#
bx E#
bx D#
bx C#
xB#
bx A#
bx @#
1?#
bx >#
bx =#
bx <#
bx ;#
bx :#
bx 9#
x8#
bx 7#
bx 6#
bx 5#
bx 4#
bx 3#
bx 2#
bx 1#
x0#
x/#
x.#
x-#
bx ,#
bx +#
bx *#
bx )#
b0 (#
bx '#
bx &#
0%#
b1101 $#
bx ##
bx "#
bx !#
bx ~"
bx }"
0|"
b1101 {"
xz"
b0xxxxx y"
bx x"
bx w"
bx v"
bx u"
bx t"
bx s"
bx r"
bx q"
bx p"
xo"
xn"
xm"
xl"
xk"
xj"
xi"
xh"
xg"
xf"
xe"
xd"
bx c"
bx b"
b0xxxxxxxxxxxxxxxx a"
bx `"
bx _"
bx ^"
bx ]"
bx \"
z["
zZ"
bx Y"
bx X"
bx W"
bx00 V"
bx00 U"
b11111010000 T"
0S"
bx R"
bx Q"
bx P"
bx O"
bx N"
bx M"
1L"
bx K"
bx J"
xI"
bx H"
bx G"
bx F"
xE"
xD"
bx C"
xB"
xA"
bx @"
x?"
bx >"
b0 ="
0<"
bx ;"
0:"
b1101 9"
bx 8"
bx 7"
x6"
15"
x4"
x3"
x2"
x1"
x0"
bx /"
b0 ."
bx -"
1,"
0+"
bx *"
0)"
b0 ("
1'"
0&"
1%"
bx $"
bx #"
x""
x!"
x~
x}
x|
x{
0z
xy
xx
bx w
b0 v
bx u
1t
0s
bx r
0q
b0 p
1o
0n
1m
bx l
bx k
xj
xi
xh
xg
xf
xe
0d
xc
xb
bx a
b0 `
bx _
1^
0]
bx \
0[
b0 Z
1Y
0X
1W
bx V
bx U
xT
xS
xR
xQ
xP
xO
0N
bx M
bx L
bx K
bx J
bx I
bx H
0G
0F
b0 E
0D
0C
xB
0A
0@
bx ?
bx >
x=
x<
x;
bx :
bx 9
bx 8
bx 7
x6
bx 5
04
03
bx 2
01
00
bx /
bx .
0-
x,
0+
0*
1)
x(
x'
bx &
x%
1$
x#
x"
bx !
$end
#5
b0 _
b1 \
b0 U
b0 a
b0 V
0c
0b
0h
0f
b0 u
b1 r
b0 k
b0 w
b0 l
0y
0x
0~
0|
b0 -"
b1 *"
b0 #"
b0 /"
b0 $"
01"
00"
1*
0)
1+
13
#10
b1111111111 1#
b1111111111111111 H"
b1111111111111111 :#
b1111111111111111 &#
0/#
0.#
b1111111111111111 ;"
b1111111111111111 ^"
b1111111111111111 '#
b0 !#
b0 7"
b0 \"
b0 ~"
b1111111111111111 ##
b1111111111111111 8"
b1111111111111111 ]"
b1111111111111111 "#
1I"
0o"
0-#
06
b1000 G"
b1000 s"
b1000 9#
b11111 y"
1z"
0A"
0B"
0n"
00#
b0 K"
b0 Q"
b0 u"
b0 5#
b11111 x"
0e"
0k"
0g"
0i"
0f"
0l"
0h"
0j"
b11 {"
b11 9"
b11 $#
b1111111111111111 }"
0m"
0d"
0E"
0D"
b1101 p"
b0 J"
b0 t"
b0 4#
b1000 M"
b1000 v"
b1000 6#
b11111 r"
b111111 _"
b11111111111111111111111111111111 `"
b1111111111111111 a"
b1111111111111111 b"
1<
14"
b0 X"
b110100000010001111111111111111 @"
b110100000010001111111111111111 P"
b110100000010001111111111111111 Y"
b110100000010001111111111111111 c"
b100 U"
b100 V"
06"
0=
b0 W"
b100 O"
b0 F"
b0 R"
b0 q"
0*
1)
05"
0L"
0+
03
1-
1A
1F
#15
0B#
08#
1`#
z'
b0 V#
b0 [#
b0 T#
b11111111 h#
b11111111 /
b11111111 i#
b11111111 8
b11111111 j#
b11111111 ?
0%
0I#
0H#
0?"
02"
1c#
z(
b0 d#
b0 a#
0_#
b0 e#
b0 b#
b0 M#
b0 M
b0 D#
b0 g#
b0 L#
b0 L
b0 C#
b0 f#
b0 J#
b0 K#
0#
03"
0B
0!"
0}
0i
0g
1*
0)
1+
13
#20
0*
1)
15"
1L"
0+
03
1,
1;
0-
0A
0F
#25
0<
04"
1R
1P
0j
0e
0""
0{
b1 K#
1#
0R#
0"
b1110110010100100111100000010 d#
b1 b#
16"
1=
1*
0)
1+
13
#30
0*
1)
0+
03
0,
0;
#35
1H#
1<
14"
b10 b#
b10 K#
1S
1Q
0R
0P
06"
0=
1*
0)
1+
13
#40
0*
1)
0+
03
#45
b1 Z
b1 `
b0 h#
b0 /
b0 i#
b0 8
0<
04"
0S
0Q
1T
1O
b11 K#
b1 L#
b1 L
b1 C#
b1 f#
b11 b#
16"
1=
1*
0)
1+
13
#50
0*
1)
0+
03
#55
12"
1]
0^
1C
b0 h#
b0 /
b0 i#
b0 8
1X
0Y
1[
1N
1<
14"
b100 b#
b10 L#
b10 L
b10 C#
b10 f#
b100 K#
b1 a
b1 V
0T
0O
06"
0=
1*
0)
1+
13
#60
0*
1)
0+
03
#65
0C
18#
1?"
12"
b0 h#
b0 /
b0 i#
b0 8
0<
04"
b1 _
b10 \
b1 U
1c
1b
13"
1B
b101 K#
b11 L#
b11 L
b11 C#
b11 f#
b101 b#
16"
1=
1*
0)
1+
13
#70
0*
1)
0+
03
#75
b0 h#
b0 /
b0 i#
b0 8
1<
14"
b110 b#
b100 L#
b100 L
b100 C#
b100 f#
b110 K#
b10 _
b11 \
b10 U
06"
0=
1*
0)
1+
13
#80
0*
1)
0+
03
#85
x/#
x.#
bx !#
bx 7"
bx \"
bx ~"
bx 1#
bx H"
bx :#
b1100100 ##
b1100100 8"
b1100100 ]"
b1100100 "#
b11111 G"
b11111 s"
b11111 9#
b1 y"
bx &#
bx ;"
bx ^"
bx '#
bx ^#
bx W#
bx U#
bx X#
bx K"
bx Q"
bx u"
bx 5#
b1 x"
b1011 {"
b1011 9"
b1011 $#
b1100100 }"
bx 5
bx >"
bx +#
bx Y#
b111111 p"
b11111 J"
b11111 t"
b11111 4#
b11111 M"
b11111 v"
b11111 6#
b0 r"
b100100 _"
b1100100 `"
b1100100 a"
b1100100 b"
bx N"
bx w"
bx )#
bx 2#
bx 7#
b1 X"
b11111111111111110000000001100100 @"
b11111111111111110000000001100100 P"
b11111111111111110000000001100100 Y"
b11111111111111110000000001100100 c"
b1000 U"
b1000 V"
b100 W"
b1000 O"
b100 F"
b100 R"
b100 q"
b0 h#
b0 /
b0 i#
b0 8
0<
04"
b11 _
b100 \
b11 U
b111 K#
b101 L#
b101 L
b101 C#
b101 f#
b111 b#
16"
1=
1*
0)
1+
13
#90
0*
1)
0+
03
#95
b0 h#
b0 /
b0 i#
b0 8
1<
14"
b1000 b#
b110 L#
b110 L
b110 C#
b110 f#
b1000 K#
b100 _
b101 \
b100 U
06"
0=
1*
0)
1+
13
#100
0*
1)
0+
03
#105
b0 1#
b11111111111111110000000000000000 H"
b11111111111111110000000000000000 :#
b11111111111111110000000000000000 &#
0/#
0.#
b11111111111111110000000000000000 ;"
b11111111111111110000000000000000 ^"
b11111111111111110000000000000000 '#
b10100010111 ^#
b11111 W#
b111111 U#
b0 X#
b10000 !#
b10000 7"
b10000 \"
b10000 ~"
b1111111111111111 ##
b1111111111111111 8"
b1111111111111111 ]"
b1111111111111111 "#
b1000 G"
b1000 s"
b1000 9#
b11111111111 5
b11111111111 >"
b11111111111 +#
b11111111111 Y#
b10000 y"
b0 K"
b0 Q"
b0 u"
b0 5#
b1111111111111111 N"
b1111111111111111 w"
b1111111111111111 )#
b1111111111111111 2#
b1111111111111111 7#
b10000 x"
1e"
1k"
b1010 {"
b1010 9"
b1010 $#
b100010000000000 }"
0z"
b0 p"
b0 J"
b0 t"
b0 4#
b1000 M"
b1000 v"
b1000 6#
b1000 r"
b0 _"
b100010000000000 `"
b100010000000000 a"
b100010000000000 b"
b10 X"
b10000100010000000000 @"
b10000100010000000000 P"
b10000100010000000000 Y"
b10000100010000000000 c"
b1100 U"
b1100 V"
b1000 W"
b1100 O"
b1000 F"
b1000 R"
b1000 q"
b0 h#
b0 /
b0 i#
b0 8
0<
04"
b101 _
b110 \
b101 U
b1001 K#
b111 L#
b111 L
b111 C#
b111 f#
b1001 b#
16"
1=
1*
0)
1+
13
#110
0*
1)
0+
03
#115
b0 h#
b0 /
b0 i#
b0 8
1<
14"
b1010 b#
b1000 L#
b1000 L
b1000 C#
b1000 f#
b1010 K#
b110 _
b111 \
b110 U
06"
0=
1*
0)
1+
13
#120
0*
1)
0+
03
#125
b0 !#
b0 7"
b0 \"
b0 ~"
b0 H"
b0 :#
b0 G"
b0 s"
b0 9#
b1 y"
b0 &#
b0 ;"
b0 ^"
b0 '#
b0 W#
b0 ^#
b0 U#
b0 X#
b0 ##
b0 8"
b0 ]"
b0 "#
b1 x"
0e"
0k"
b1 {"
b1 9"
b1 $#
b1100100 }"
b0 5
b0 >"
b0 +#
b0 Y#
b0 M"
b0 v"
b0 6#
b0 r"
b100100 _"
b1100100 `"
b1100100 a"
b1100100 b"
b0 N"
b0 w"
b0 )#
b0 2#
b0 7#
b11 X"
b1100100 @"
b1100100 P"
b1100100 Y"
b1100100 c"
b10000 U"
b10000 V"
b1100 W"
b10000 O"
b1100 F"
b1100 R"
b1100 q"
b0 h#
b0 /
b0 i#
b0 8
0<
04"
b111 _
b1000 \
b111 U
b1011 K#
b1001 L#
b1001 L
b1001 C#
b1001 f#
b1011 b#
16"
1=
1*
0)
1+
13
#130
0*
1)
0+
03
#135
b0 h#
b0 /
b0 i#
b0 8
1<
14"
b1100 b#
b1010 L#
b1010 L
b1010 C#
b1010 f#
b1100 K#
b1000 _
b1001 \
b1000 U
06"
0=
1*
0)
1+
13
#140
0*
1)
0+
03
#145
b10 H"
b10 :#
b10 &#
b10 ;"
b10 ^"
b10 '#
bx W#
bx ^#
bx U#
bx X#
b10 ##
b10 8"
b10 ]"
b10 "#
b1001 G"
b1001 s"
b1001 9#
bx 5
bx >"
bx +#
bx Y#
b0 y"
bx N"
bx w"
bx )#
bx 2#
bx 7#
b0 x"
b11 {"
b11 9"
b11 $#
b10 }"
1z"
b1101 p"
b1001 M"
b1001 v"
b1001 6#
b10 _"
b10 `"
b10 a"
b10 b"
b100 X"
b110100000010010000000000000010 @"
b110100000010010000000000000010 P"
b110100000010010000000000000010 Y"
b110100000010010000000000000010 c"
b10100 U"
b10100 V"
b10000 W"
b10100 O"
b10000 F"
b10000 R"
b10000 q"
b0 h#
b0 /
b0 i#
b0 8
0<
04"
b1001 _
b1010 \
b1001 U
b1101 K#
b1011 L#
b1011 L
b1011 C#
b1011 f#
b1101 b#
16"
1=
1*
0)
1+
13
#150
0*
1)
0+
03
#155
b0 h#
b0 /
b0 i#
b0 8
1<
14"
b1110 b#
b1100 L#
b1100 L
b1100 C#
b1100 f#
b1110 K#
b1010 _
b1011 \
b1010 U
06"
0=
1*
0)
1+
13
#160
0*
1)
0+
03
#165
b0 H"
b0 :#
bx ##
bx 8"
bx ]"
bx "#
b0 G"
b0 s"
b0 9#
b1 y"
b0 &#
b0 ;"
b0 ^"
b0 '#
bx ^#
bx W#
bx U#
bx X#
b1 x"
b1 {"
b1 9"
b1 $#
b1100100 }"
bx 5
bx >"
bx +#
bx Y#
0z"
b0 p"
b10 M"
b10 v"
b10 6#
b100100 _"
b1100100 `"
b1100100 a"
b1100100 b"
bx N"
bx w"
bx )#
bx 2#
bx 7#
b101 X"
b100000000001100100 @"
b100000000001100100 P"
b100000000001100100 Y"
b100000000001100100 c"
b11000 U"
b11000 V"
b10100 W"
b11000 O"
b10100 F"
b10100 R"
b10100 q"
b0 h#
b0 /
b0 i#
b0 8
0<
04"
b1011 _
b1100 \
b1011 U
b1111 K#
b1101 L#
b1101 L
b1101 C#
b1101 f#
b1111 b#
16"
1=
1*
0)
1+
13
#170
0*
1)
0+
03
#175
b0 h#
b0 /
b0 i#
b0 8
1<
14"
b10000 b#
b1110 L#
b1110 L
b1110 C#
b1110 f#
b10000 K#
b1100 _
b1101 \
b1100 U
06"
0=
1*
0)
1+
13
#180
0*
1)
0+
03
#185
b11111111111111110000000000000000 !#
b11111111111111110000000000000000 7"
b11111111111111110000000000000000 \"
b11111111111111110000000000000000 ~"
b1010000 ^#
b10 W#
b0 U#
b0 X#
b11 1#
b11111111111111110000000000001100 H"
b11111111111111110000000000001100 :#
b1100 ##
b1100 8"
b1100 ]"
b1100 "#
b1001 G"
b1001 s"
b1001 9#
0-#
16
b10 5
b10 >"
b10 +#
b10 Y#
b0 y"
b11111111111111110000000000001100 &#
1/#
0.#
b11111111111111110000000000001100 ;"
b11111111111111110000000000001100 ^"
b11111111111111110000000000001100 '#
08#
10#
b11111111111111110000000000000000 K"
b11111111111111110000000000000000 Q"
b11111111111111110000000000000000 u"
b11111111111111110000000000000000 5#
b10 N"
b10 w"
b10 )#
b10 2#
b10 7#
b0 x"
b0 {"
b0 9"
b0 $#
b1100 }"
1z"
0I"
1E"
b101011 p"
b1000 J"
b1000 t"
b1000 4#
b1001 M"
b1001 v"
b1001 6#
b1100 _"
b1100 `"
b1100 a"
b1100 b"
b110 X"
b10101101000010010000000000001100 @"
b10101101000010010000000000001100 P"
b10101101000010010000000000001100 Y"
b10101101000010010000000000001100 c"
b11100 U"
b11100 V"
b11000 W"
b11100 O"
b11000 F"
b11000 R"
b11000 q"
b0 h#
b0 /
b0 i#
b0 8
0<
04"
b1101 _
b1110 \
b1101 U
b10001 K#
b1111 L#
b1111 L
b1111 C#
b1111 f#
b10001 b#
16"
1=
1*
0)
1+
13
#190
0*
1)
0+
03
#195
b0 h#
b0 /
b0 i#
b0 8
1<
14"
b10010 b#
b10000 L#
b10000 L
b10000 C#
b10000 f#
b10010 K#
b1110 _
b1111 \
b1110 U
06"
0=
1*
0)
1+
13
#200
0*
1)
0+
03
