mipstest.vcd
$date
	Mon Feb 10 22:16:55 2014
$end
$version
	Icarus Verilog
$end
$timescale
	1s
$end
$scope module mips_testbench $end
$var wire 12 ! chip_data [11:0] $end
$var wire 1 " chip_data_enable $end
$var wire 1 # chip_hsync $end
$var wire 1 $ chip_reset $end
$var wire 1 % chip_vsync $end
$var wire 4 & leds [3:0] $end
$var wire 1 ' scl $end
$var wire 1 ( sda $end
$var wire 1 ) xclk $end
$var wire 1 * xclk_n $end
$var reg 1 + clk $end
$var reg 1 , play $end
$var reg 1 - rst $end
$scope module dut $end
$var wire 8 . b [7:0] $end
$var wire 8 / b_cb [7:0] $end
$var wire 1 0 bottom_btn $end
$var wire 1 1 center_btn $end
$var wire 12 2 chip_data [11:0] $end
$var wire 1 " chip_data_enable $end
$var wire 1 # chip_hsync $end
$var wire 1 $ chip_reset $end
$var wire 1 % chip_vsync $end
$var wire 1 3 clk $end
$var wire 1 4 debug_select $end
$var wire 14 5 display_data [13:0] $end
$var wire 1 6 display_we $end
$var wire 8 7 g [7:0] $end
$var wire 8 8 g_cb [7:0] $end
$var wire 27 9 led_counter [26:0] $end
$var wire 4 : leds [3:0] $end
$var wire 1 ; left_btn $end
$var wire 1 < memclk $end
$var wire 1 = mipsclk $end
$var wire 8 > r [7:0] $end
$var wire 8 ? r_cb [7:0] $end
$var wire 1 @ right_btn $end
$var wire 1 A rst $end
$var wire 1 B run $end
$var wire 1 C run_toggle $end
$var wire 1 ' scl $end
$var wire 1 ( sda $end
$var wire 1 D step $end
$var wire 8 E sw [7:0] $end
$var wire 1 F top_btn $end
$var wire 1 G trap $end
$var wire 8 H v_b [7:0] $end
$var wire 8 I v_g [7:0] $end
$var wire 8 J v_r [7:0] $end
$var wire 6 K vga_rgb [5:0] $end
$var wire 11 L x [10:0] $end
$var wire 1 ) xclk $end
$var wire 1 * xclk_n $end
$var wire 10 M y [9:0] $end
$scope module run_button_unit $end
$var wire 1 N button_debounced $end
$var wire 1 O button_sync $end
$var wire 1 3 clk $end
$var wire 1 ; in $end
$var wire 1 C out $end
$var wire 1 A rst $end
$scope module sync $end
$var wire 1 3 clk $end
$var wire 1 P ff1_out $end
$var wire 1 Q ff2_out $end
$var wire 1 ; in $end
$var wire 1 O out $end
$scope module ff1 $end
$var wire 1 3 clk $end
$var wire 1 ; d $end
$var reg 1 R q $end
$upscope $end
$scope module ff2 $end
$var wire 1 3 clk $end
$var wire 1 P d $end
$var reg 1 S q $end
$upscope $end
$scope module ff3 $end
$var wire 1 3 clk $end
$var wire 1 Q d $end
$var reg 1 T q $end
$upscope $end
$upscope $end
$scope module debounce $end
$var wire 1 3 clk $end
$var wire 20 U counter_out [19:0] $end
$var wire 2 V current_state_q [1:0] $end
$var wire 1 W en $end
$var wire 1 O in $end
$var wire 1 A rst $end
$var reg 1 X counter_enable $end
$var reg 1 Y counter_reset $end
$var reg 2 Z next_state_d [1:0] $end
$var reg 1 [ out $end
$scope module counter $end
$var wire 1 3 clk $end
$var wire 20 \ d [19:0] $end
$var wire 1 ] en $end
$var wire 1 ^ r $end
$var reg 20 _ q [19:0] $end
$upscope $end
$scope module state $end
$var wire 1 3 clk $end
$var wire 2 ` d [1:0] $end
$var wire 1 W en $end
$var wire 1 A r $end
$var reg 2 a q [1:0] $end
$upscope $end
$upscope $end
$scope module one_pulse $end
$var wire 1 3 clk $end
$var wire 1 N in $end
$var wire 1 b last_value $end
$var wire 1 C out $end
$var wire 1 A rst $end
$scope module last_value_storage $end
$var wire 1 3 clk $end
$var wire 1 N d $end
$var wire 1 A r $end
$var reg 1 c q $end
$upscope $end
$upscope $end
$upscope $end
$scope module step_button_unit $end
$var wire 1 d button_debounced $end
$var wire 1 e button_sync $end
$var wire 1 3 clk $end
$var wire 1 @ in $end
$var wire 1 D out $end
$var wire 1 A rst $end
$scope module sync $end
$var wire 1 3 clk $end
$var wire 1 f ff1_out $end
$var wire 1 g ff2_out $end
$var wire 1 @ in $end
$var wire 1 e out $end
$scope module ff1 $end
$var wire 1 3 clk $end
$var wire 1 @ d $end
$var reg 1 h q $end
$upscope $end
$scope module ff2 $end
$var wire 1 3 clk $end
$var wire 1 f d $end
$var reg 1 i q $end
$upscope $end
$scope module ff3 $end
$var wire 1 3 clk $end
$var wire 1 g d $end
$var reg 1 j q $end
$upscope $end
$upscope $end
$scope module debounce $end
$var wire 1 3 clk $end
$var wire 20 k counter_out [19:0] $end
$var wire 2 l current_state_q [1:0] $end
$var wire 1 m en $end
$var wire 1 e in $end
$var wire 1 A rst $end
$var reg 1 n counter_enable $end
$var reg 1 o counter_reset $end
$var reg 2 p next_state_d [1:0] $end
$var reg 1 q out $end
$scope module counter $end
$var wire 1 3 clk $end
$var wire 20 r d [19:0] $end
$var wire 1 s en $end
$var wire 1 t r $end
$var reg 20 u q [19:0] $end
$upscope $end
$scope module state $end
$var wire 1 3 clk $end
$var wire 2 v d [1:0] $end
$var wire 1 m en $end
$var wire 1 A r $end
$var reg 2 w q [1:0] $end
$upscope $end
$upscope $end
$scope module one_pulse $end
$var wire 1 3 clk $end
$var wire 1 d in $end
$var wire 1 x last_value $end
$var wire 1 D out $end
$var wire 1 A rst $end
$scope module last_value_storage $end
$var wire 1 3 clk $end
$var wire 1 d d $end
$var wire 1 A r $end
$var reg 1 y q $end
$upscope $end
$upscope $end
$upscope $end
$scope module trap_button_unit $end
$var wire 1 z button_debounced $end
$var wire 1 { button_sync $end
$var wire 1 3 clk $end
$var wire 1 0 in $end
$var wire 1 G out $end
$var wire 1 A rst $end
$scope module sync $end
$var wire 1 3 clk $end
$var wire 1 | ff1_out $end
$var wire 1 } ff2_out $end
$var wire 1 0 in $end
$var wire 1 { out $end
$scope module ff1 $end
$var wire 1 3 clk $end
$var wire 1 0 d $end
$var reg 1 ~ q $end
$upscope $end
$scope module ff2 $end
$var wire 1 3 clk $end
$var wire 1 | d $end
$var reg 1 !" q $end
$upscope $end
$scope module ff3 $end
$var wire 1 3 clk $end
$var wire 1 } d $end
$var reg 1 "" q $end
$upscope $end
$upscope $end
$scope module debounce $end
$var wire 1 3 clk $end
$var wire 20 #" counter_out [19:0] $end
$var wire 2 $" current_state_q [1:0] $end
$var wire 1 %" en $end
$var wire 1 { in $end
$var wire 1 A rst $end
$var reg 1 &" counter_enable $end
$var reg 1 '" counter_reset $end
$var reg 2 (" next_state_d [1:0] $end
$var reg 1 )" out $end
$scope module counter $end
$var wire 1 3 clk $end
$var wire 20 *" d [19:0] $end
$var wire 1 +" en $end
$var wire 1 ," r $end
$var reg 20 -" q [19:0] $end
$upscope $end
$scope module state $end
$var wire 1 3 clk $end
$var wire 2 ." d [1:0] $end
$var wire 1 %" en $end
$var wire 1 A r $end
$var reg 2 /" q [1:0] $end
$upscope $end
$upscope $end
$scope module one_pulse $end
$var wire 1 3 clk $end
$var wire 1 z in $end
$var wire 1 0" last_value $end
$var wire 1 G out $end
$var wire 1 A rst $end
$scope module last_value_storage $end
$var wire 1 3 clk $end
$var wire 1 z d $end
$var wire 1 A r $end
$var reg 1 1" q $end
$upscope $end
$upscope $end
$upscope $end
$scope module run_dff $end
$var wire 1 3 clk $end
$var wire 1 2" d $end
$var wire 1 A r $end
$var reg 1 3" q $end
$upscope $end
$scope module clk_div $end
$var wire 1 3 clk $end
$var wire 1 4" d $end
$var wire 1 5" r $end
$var reg 1 6" q $end
$upscope $end
$scope module cpu $end
$var wire 32 7" alu_op_x [31:0] $end
$var wire 32 8" alu_op_y [31:0] $end
$var wire 4 9" alu_opcode [3:0] $end
$var wire 1 :" alu_overflow $end
$var wire 32 ;" alu_result [31:0] $end
$var wire 1 <" branch_en $end
$var wire 1 = clk $end
$var wire 32 =" controller_data [31:0] $end
$var wire 14 >" display_data [13:0] $end
$var wire 1 6 display_we $end
$var wire 1 ?" en $end
$var wire 32 @" instr [31:0] $end
$var wire 1 A" jump_en $end
$var wire 1 B" jump_reg_en $end
$var wire 32 C" mem_read_data [31:0] $end
$var wire 1 D" mem_read_en $end
$var wire 1 E" mem_write_en $end
$var wire 1 < memclk $end
$var wire 32 F" pc [31:0] $end
$var wire 5 G" reg_write_addr [4:0] $end
$var wire 32 H" reg_write_data [31:0] $end
$var wire 1 I" reg_write_en $end
$var wire 5 J" rs_addr [4:0] $end
$var wire 32 K" rs_data [31:0] $end
$var wire 1 L" rst $end
$var wire 5 M" rt_addr [4:0] $end
$var wire 32 N" rt_data [31:0] $end
$var wire 1 G trap $end
$scope module if_stage $end
$var wire 1 <" branch_en $end
$var wire 1 = clk $end
$var wire 1 ?" en $end
$var wire 32 O" inc_pc [31:0] $end
$var wire 32 P" instr [31:0] $end
$var wire 1 A" jump_en $end
$var wire 1 B" jump_reg_en $end
$var wire 32 Q" jump_reg_pc [31:0] $end
$var wire 32 R" pc [31:0] $end
$var wire 1 L" rst $end
$var wire 1 S" trap_en $end
$var wire 32 T" trap_pc [31:0] $end
$var reg 32 U" next_pc [31:0] $end
$scope module pc_reg $end
$var wire 1 = clk $end
$var wire 32 V" d [31:0] $end
$var wire 1 ?" en $end
$var wire 1 L" r $end
$var reg 32 W" q [31:0] $end
$upscope $end
$scope module instr_mem $end
$var wire 9 X" addr [8:0] $end
$var wire 32 Y" dout [31:0] $end
$upscope $end
$upscope $end
$scope module d_stage $end
$var wire 32 Z" alu_op_x [31:0] $end
$var wire 32 [" alu_op_y [31:0] $end
$var wire 32 \" alu_result [31:0] $end
$var wire 6 ]" funct [5:0] $end
$var wire 32 ^" imm_sign_extend [31:0] $end
$var wire 32 _" imm_zero_extend [31:0] $end
$var wire 16 `" immediate [15:0] $end
$var wire 32 a" instr [31:0] $end
$var wire 1 b" isLUI $end
$var wire 1 c" isSLL $end
$var wire 1 d" isSLLV $end
$var wire 1 e" isSRA $end
$var wire 1 f" isSRAV $end
$var wire 1 g" isSRL $end
$var wire 1 h" isSRLV $end
$var wire 1 i" isShift $end
$var wire 1 j" isVarShift $end
$var wire 1 k" is_branch_instr $end
$var wire 1 A" jump_en $end
$var wire 1 l" jump_no_link $end
$var wire 1 B" jump_reg_en $end
$var wire 1 m" jump_with_link $end
$var wire 1 D" mem_read_en $end
$var wire 1 E" mem_write_en $end
$var wire 6 n" op [5:0] $end
$var wire 32 o" pc [31:0] $end
$var wire 5 p" rd_addr [4:0] $end
$var wire 5 q" reg_write_addr [4:0] $end
$var wire 1 I" reg_write_en $end
$var wire 5 r" rs_addr [4:0] $end
$var wire 32 s" rs_data [31:0] $end
$var wire 5 t" rt_addr [4:0] $end
$var wire 32 u" rt_data [31:0] $end
$var wire 5 v" shamt [4:0] $end
$var wire 32 w" shift_amount [31:0] $end
$var wire 1 x" use_imm_operand $end
$var reg 4 y" alu_opcode [3:0] $end
$var reg 1 z" branch_en $end
$var reg 32 {" imm_ext [31:0] $end
$upscope $end
$scope module x_stage $end
$var wire 32 |" alu_op_x [31:0] $end
$var wire 32 }" alu_op_x_signed [31:0] $end
$var wire 32 ~" alu_op_y [31:0] $end
$var wire 32 !# alu_op_y_signed [31:0] $end
$var wire 4 "# alu_opcode [3:0] $end
$var reg 1 ## alu_overflow $end
$var reg 32 $# alu_result [31:0] $end
$upscope $end
$scope module m_stage $end
$var wire 32 %# addr [31:0] $end
$var wire 1 < clk $end
$var wire 32 &# controller_data [31:0] $end
$var wire 32 '# data_in [31:0] $end
$var wire 32 (# data_out [31:0] $end
$var wire 14 )# display_data [13:0] $end
$var wire 1 6 display_we $end
$var wire 32 *# dram_data [31:0] $end
$var wire 1 +# dram_we $end
$var wire 1 ,# isControllerAddr $end
$var wire 1 -# isDisplayAddr $end
$var wire 1 .# we $end
$scope module dmem $end
$var wire 10 /# addr [9:0] $end
$var wire 1 < clk $end
$var wire 32 0# din [31:0] $end
$var wire 1 +# we $end
$var reg 32 1# dout [31:0] $end
$upscope $end
$upscope $end
$scope module w_stage $end
$var wire 1 = clk $end
$var wire 5 2# rs_addr [4:0] $end
$var wire 32 3# rs_data [31:0] $end
$var wire 5 4# rt_addr [4:0] $end
$var wire 32 5# rt_data [31:0] $end
$var wire 1 6# we $end
$var wire 5 7# write_addr [4:0] $end
$var wire 32 8# write_data [31:0] $end
$upscope $end
$upscope $end
$scope module led_div $end
$var wire 1 3 clk $end
$var wire 27 9# d [26:0] $end
$var reg 27 :# q [26:0] $end
$upscope $end
$scope module ctrl $end
$var wire 8 ;# b [7:0] $end
$var wire 12 <# chip_data [11:0] $end
$var wire 1 " chip_data_enable $end
$var wire 1 # chip_hsync $end
$var wire 1 $ chip_reset $end
$var wire 1 % chip_vsync $end
$var wire 1 3 clk $end
$var wire 1 =# en $end
$var wire 8 ># g [7:0] $end
$var wire 8 ?# r [7:0] $end
$var wire 1 A rst $end
$var wire 1 @# valid_data $end
$var wire 11 A# x [10:0] $end
$var wire 1 ) xclk $end
$var wire 1 * xclk_n $end
$var wire 10 B# y [9:0] $end
$var reg 24 C# accum [23:0] $end
$var integer 32 D# file [31:0] $end
$var integer 32 E# naccum [31:0] $end
$scope module gen_sync $end
$var wire 1 3 clk $end
$var wire 1 =# en $end
$var wire 1 # hsync $end
$var wire 1 A rst $end
$var wire 1 @# valid_data $end
$var wire 1 F# valid_h $end
$var wire 1 G# valid_v $end
$var wire 1 % vsync $end
$var reg 11 H# hsync_counter [10:0] $end
$var reg 11 I# pixel_counter [10:0] $end
$var reg 11 J# x [10:0] $end
$var reg 10 K# y [9:0] $end
$upscope $end
$scope module make_chip_data $end
$var wire 8 L# b [7:0] $end
$var wire 1 3 clk $end
$var wire 8 M# g [7:0] $end
$var wire 8 N# r [7:0] $end
$var wire 1 @# valid $end
$var reg 12 O# chip_data [11:0] $end
$var reg 1 P# chip_data_enable $end
$var reg 24 Q# pixel [23:0] $end
$upscope $end
$upscope $end
$scope module mips_disp $end
$var wire 6 R# block_x_read [5:0] $end
$var wire 6 S# block_x_write [5:0] $end
$var wire 5 T# block_y_read [4:0] $end
$var wire 5 U# block_y_write [4:0] $end
$var wire 1 = clk $end
$var wire 3 V# color [2:0] $end
$var wire 14 W# display_data [13:0] $end
$var wire 3 X# out_color [2:0] $end
$var wire 11 Y# read_addr [10:0] $end
$var wire 1 Z# valid $end
$var wire 6 [# vga_rgb [5:0] $end
$var wire 1 6 we $end
$var wire 11 \# write_addr [10:0] $end
$upscope $end
$scope module i2c_controller $end
$var wire 1 3 clk $end
$var wire 1 ]# done $end
$var wire 1 A rst $end
$var wire 1 ' scl $end
$var wire 1 ^# scl_logic $end
$var wire 1 ( sda $end
$var reg 3 _# packet_index [2:0] $end
$var reg 14 `# scl_counter [13:0] $end
$var reg 1 a# sda_logic $end
$var reg 28 b# sda_shift [27:0] $end
$var reg 5 c# state [4:0] $end
$upscope $end
$scope module tp $end
$var wire 11 d# x [10:0] $end
$var wire 10 e# y [9:0] $end
$var reg 8 f# b [7:0] $end
$var reg 8 g# g [7:0] $end
$var reg 8 h# r [7:0] $end
$upscope $end
$upscope $end
$upscope $end
$enddefinitions $end
#0
$dumpvars
bx h#
bx g#
bx f#
bx e#
bx d#
bx c#
bx b#
xa#
bx `#
bx _#
x^#
x]#
bx \#
bx [#
1Z#
bx Y#
bx X#
bx W#
bx V#
bx U#
bx T#
bx S#
bx R#
bx Q#
xP#
bx O#
bx N#
bx M#
bx L#
bx K#
bx J#
bx I#
bx H#
xG#
xF#
bx E#
b10000000000000000000000000000011 D#
bx C#
bx B#
bx A#
x@#
bx ?#
bx >#
1=#
bx <#
bx ;#
bx :#
bx 9#
bx 8#
bx 7#
x6#
bx 5#
bx 4#
bx 3#
bx 2#
bx 1#
bx 0#
bx /#
x.#
x-#
x,#
x+#
bx *#
bx )#
bx (#
bx '#
b0 &#
bx %#
bx $#
0##
b1101 "#
bx !#
bx ~"
bx }"
bx |"
bx {"
0z"
b1101 y"
xx"
b0xxxxx w"
bx v"
bx u"
bx t"
bx s"
bx r"
bx q"
bx p"
bx o"
bx n"
xm"
xl"
xk"
xj"
xi"
xh"
xg"
xf"
xe"
xd"
xc"
xb"
bx a"
bx `"
b0xxxxxxxxxxxxxxxx _"
bx ^"
bx ]"
bx \"
bx ["
bx Z"
bx Y"
bx X"
bx W"
bx00 V"
bx00 U"
b11111010000 T"
0S"
bx R"
bx Q"
bx P"
bx O"
bx N"
bx M"
1L"
bx K"
bx J"
xI"
bx H"
bx G"
bx F"
xE"
xD"
bx C"
xB"
xA"
bx @"
x?"
bx >"
b0 ="
0<"
bx ;"
0:"
b1101 9"
bx 8"
bx 7"
x6"
15"
x4"
x3"
x2"
x1"
x0"
bx /"
b0 ."
bx -"
1,"
0+"
bx *"
0)"
b0 ("
1'"
0&"
1%"
bx $"
bx #"
x""
x!"
x~
x}
x|
x{
0z
xy
xx
bx w
b0 v
bx u
1t
0s
bx r
0q
b0 p
1o
0n
1m
bx l
bx k
xj
xi
xh
xg
xf
xe
0d
xc
xb
bx a
b0 `
bx _
1^
0]
bx \
0[
b0 Z
1Y
0X
1W
bx V
bx U
xT
xS
xR
xQ
xP
xO
0N
bx M
bx L
bx K
bx J
bx I
bx H
0G
0F
b0 E
0D
0C
xB
0A
0@
bx ?
bx >
x=
x<
x;
bx :
bx 9
bx 8
bx 7
x6
bx 5
04
03
bx 2
01
00
bx /
bx .
0-
x,
0+
0*
1)
x(
x'
bx &
x%
1$
x#
x"
bx !
$end
#5
b0 _
b1 \
b0 U
b0 a
b0 V
0c
0b
0h
0f
b0 u
b1 r
b0 k
b0 w
b0 l
0y
0x
0~
0|
b0 -"
b1 *"
b0 #"
b0 /"
b0 $"
01"
00"
1*
0)
1+
13
#10
b1111111111 /#
b1111111111111111 H"
b1111111111111111 8#
b1111111111111111 $#
0-#
0,#
b1111111111111111 ;"
b1111111111111111 \"
b1111111111111111 %#
1I"
b0 }"
b0 7"
b0 Z"
b0 |"
b1111111111111111 !#
b1111111111111111 8"
b1111111111111111 ["
b1111111111111111 ~"
0+#
06
b1000 G"
b1000 q"
b1000 7#
b11111 w"
1x"
0A"
0B"
0l"
0m"
0.#
b0 K"
b0 Q"
b0 s"
b0 3#
b11111 v"
0c"
0i"
0e"
0g"
0d"
0j"
0f"
0h"
b11 y"
b11 9"
b11 "#
b1111111111111111 {"
0k"
0b"
0E"
0D"
b1101 n"
b0 J"
b0 r"
b0 2#
b1000 M"
b1000 t"
b1000 4#
b11111 p"
b111111 ]"
b11111111111111111111111111111111 ^"
b1111111111111111 _"
b1111111111111111 `"
1<
14"
b0 X"
b110100000010001111111111111111 @"
b110100000010001111111111111111 P"
b110100000010001111111111111111 Y"
b110100000010001111111111111111 a"
b100 U"
b100 V"
06"
0=
b0 W"
b100 O"
b0 F"
b0 R"
b0 o"
0*
1)
05"
0L"
0+
03
1-
1A
1F
#15
0@#
06#
1^#
z'
b0 T#
b0 Y#
b0 R#
b11111111 f#
b11111111 /
b11111111 g#
b11111111 8
b11111111 h#
b11111111 ?
0%
0G#
0F#
0?"
02"
1a#
z(
b0 b#
b0 _#
0]#
b0 c#
b0 `#
b0 K#
b0 M
b0 B#
b0 e#
b0 J#
b0 L
b0 A#
b0 d#
b0 H#
b0 I#
0#
03"
0B
0!"
0}
0i
0g
1*
0)
1+
13
#20
0*
1)
15"
1L"
0+
03
1,
1;
0-
0A
0F
#25
0<
04"
1R
1P
0j
0e
0""
0{
b1 I#
1#
0P#
0"
b1110110010100100111100000010 b#
b1 `#
16"
1=
1*
0)
1+
13
#30
0*
1)
0+
03
0,
0;
#35
1F#
1<
14"
b10 `#
b10 I#
1S
1Q
0R
0P
06"
0=
1*
0)
1+
13
#40
0*
1)
0+
03
#45
b1 Z
b1 `
b0 f#
b0 /
b0 g#
b0 8
0<
04"
0S
0Q
1T
1O
b11 I#
b1 J#
b1 L
b1 A#
b1 d#
b11 `#
16"
1=
1*
0)
1+
13
#50
0*
1)
0+
03
#55
12"
1]
0^
1C
b0 f#
b0 /
b0 g#
b0 8
1X
0Y
1[
1N
1<
14"
b100 `#
b10 J#
b10 L
b10 A#
b10 d#
b100 I#
b1 a
b1 V
0T
0O
06"
0=
1*
0)
1+
13
#60
0*
1)
0+
03
#65
0C
16#
1?"
12"
b0 f#
b0 /
b0 g#
b0 8
0<
04"
b1 _
b10 \
b1 U
1c
1b
13"
1B
b101 I#
b11 J#
b11 L
b11 A#
b11 d#
b101 `#
16"
1=
1*
0)
1+
13
#70
0*
1)
0+
03
#75
b0 f#
b0 /
b0 g#
b0 8
1<
14"
b110 `#
b100 J#
b100 L
b100 A#
b100 d#
b110 I#
b10 _
b11 \
b10 U
06"
0=
1*
0)
1+
13
#80
0*
1)
0+
03
#85
b0 /#
b11111111111111110000000000000000 H"
b11111111111111110000000000000000 8#
b11111111111111110000000000000000 $#
b11111111111111110000000000000000 ;"
b11111111111111110000000000000000 \"
b11111111111111110000000000000000 %#
b10000 }"
b10000 7"
b10000 Z"
b10000 |"
b10000 w"
b10100010111 \#
b11111 U#
b111111 S#
b0 V#
b10000 v"
1c"
1i"
b1010 y"
b1010 9"
b1010 "#
b100010000000000 {"
b11111111111 5
b11111111111 >"
b11111111111 )#
b11111111111 W#
0x"
b0 n"
b1000 p"
b0 ]"
b100010000000000 ^"
b100010000000000 _"
b100010000000000 `"
b1111111111111111 N"
b1111111111111111 u"
b1111111111111111 '#
b1111111111111111 0#
b1111111111111111 5#
b1 X"
b10000100010000000000 @"
b10000100010000000000 P"
b10000100010000000000 Y"
b10000100010000000000 a"
b1000 U"
b1000 V"
b100 W"
b1000 O"
b100 F"
b100 R"
b100 o"
b0 f#
b0 /
b0 g#
b0 8
0<
04"
b11 _
b100 \
b11 U
b111 I#
b101 J#
b101 L
b101 A#
b101 d#
b111 `#
16"
1=
1*
0)
1+
13
#90
0*
1)
0+
03
#95
b0 f#
b0 /
b0 g#
b0 8
1<
14"
b1000 `#
b110 J#
b110 L
b110 A#
b110 d#
b1000 I#
b100 _
b101 \
b100 U
06"
0=
1*
0)
1+
13
#100
0*
1)
0+
03
#105
b0 }"
b0 7"
b0 Z"
b0 |"
b0 /#
b10 H"
b10 8#
b1001 G"
b1001 q"
b1001 7#
b0 w"
b10 $#
b10 ;"
b10 \"
b10 %#
bx U#
bx \#
bx S#
bx V#
b10 !#
b10 8"
b10 ["
b10 ~"
b0 v"
0c"
0i"
b11 y"
b11 9"
b11 "#
b10 {"
bx 5
bx >"
bx )#
bx W#
1x"
b1101 n"
b1001 M"
b1001 t"
b1001 4#
b0 p"
b10 ]"
b10 ^"
b10 _"
b10 `"
bx N"
bx u"
bx '#
bx 0#
bx 5#
b10 X"
b110100000010010000000000000010 @"
b110100000010010000000000000010 P"
b110100000010010000000000000010 Y"
b110100000010010000000000000010 a"
b1100 U"
b1100 V"
b1000 W"
b1100 O"
b1000 F"
b1000 R"
b1000 o"
b0 f#
b0 /
b0 g#
b0 8
0<
04"
b101 _
b110 \
b101 U
b1001 I#
b111 J#
b111 L
b111 A#
b111 d#
b1001 `#
16"
1=
1*
0)
1+
13
#110
0*
1)
0+
03
#115
b0 f#
b0 /
b0 g#
b0 8
1<
14"
b1010 `#
b1000 J#
b1000 L
b1000 A#
b1000 d#
b1010 I#
b110 _
b111 \
b110 U
06"
0=
1*
0)
1+
13
#120
0*
1)
0+
03
#125
b100000000000000000 H"
b100000000000000000 8#
b100000000000000000 $#
b100000000000000000 ;"
b100000000000000000 \"
b100000000000000000 %#
b10000 }"
b10000 7"
b10000 Z"
b10000 |"
b10000 w"
b1010000 \#
b10 U#
b0 S#
b0 V#
b10000 v"
1c"
1i"
b1010 y"
b1010 9"
b1010 "#
b100110000000000 {"
b10 5
b10 >"
b10 )#
b10 W#
0x"
b0 n"
b1001 p"
b0 ]"
b100110000000000 ^"
b100110000000000 _"
b100110000000000 `"
b10 N"
b10 u"
b10 '#
b10 0#
b10 5#
b11 X"
b10010100110000000000 @"
b10010100110000000000 P"
b10010100110000000000 Y"
b10010100110000000000 a"
b10000 U"
b10000 V"
b1100 W"
b10000 O"
b1100 F"
b1100 R"
b1100 o"
b0 f#
b0 /
b0 g#
b0 8
0<
04"
b111 _
b1000 \
b111 U
b1011 I#
b1001 J#
b1001 L
b1001 A#
b1001 d#
b1011 `#
16"
1=
1*
0)
1+
13
#130
0*
1)
0+
03
#135
b0 f#
b0 /
b0 g#
b0 8
1<
14"
b1100 `#
b1010 J#
b1010 L
b1010 A#
b1010 d#
b1100 I#
b1000 _
b1001 \
b1000 U
06"
0=
1*
0)
1+
13
#140
0*
1)
0+
03
#145
b100000000000000000 }"
b100000000000000000 7"
b100000000000000000 Z"
b100000000000000000 |"
b1000000 /#
b100000000100000000 H"
b100000000100000000 8#
b100000000100000000 $#
b100000000100000000 ;"
b100000000100000000 \"
b100000000100000000 %#
b100 w"
b0 \#
b0 U#
b10 V#
b100000000 !#
b100000000 8"
b100000000 ["
b100000000 ~"
0c"
0i"
b11 y"
b11 9"
b11 "#
b100000000000000000 K"
b100000000000000000 Q"
b100000000000000000 s"
b100000000000000000 3#
b100 v"
b100000000 {"
b1000000000000 5
b1000000000000 >"
b1000000000000 )#
b1000000000000 W#
1x"
b1101 n"
b1001 J"
b1001 r"
b1001 2#
b0 p"
b100000000 ^"
b100000000 _"
b100000000 `"
b100000000000000000 N"
b100000000000000000 u"
b100000000000000000 '#
b100000000000000000 0#
b100000000000000000 5#
b100 X"
b110101001010010000000100000000 @"
b110101001010010000000100000000 P"
b110101001010010000000100000000 Y"
b110101001010010000000100000000 a"
b10100 U"
b10100 V"
b10000 W"
b10100 O"
b10000 F"
b10000 R"
b10000 o"
b0 f#
b0 /
b0 g#
b0 8
0<
04"
b1001 _
b1010 \
b1001 U
b1101 I#
b1011 J#
b1011 L
b1011 A#
b1011 d#
b1101 `#
16"
1=
1*
0)
1+
13
#150
0*
1)
0+
03
#155
b0 f#
b0 /
b0 g#
b0 8
1<
14"
b1110 `#
b1100 J#
b1100 L
b1100 A#
b1100 d#
b1110 I#
b1010 _
b1011 \
b1010 U
06"
0=
1*
0)
1+
13
#160
0*
1)
0+
03
#165
16
1-#
b11 /#
b11111111111111110000000000001100 H"
b11111111111111110000000000001100 8#
b1100 !#
b1100 8"
b1100 ["
b1100 ~"
0+#
b0 w"
b11111111111111110000000000001100 $#
b11111111111111110000000000001100 ;"
b11111111111111110000000000001100 \"
b11111111111111110000000000001100 %#
b11111111111111110000000000000000 }"
b11111111111111110000000000000000 7"
b11111111111111110000000000000000 Z"
b11111111111111110000000000000000 |"
b1 \#
b1 S#
06#
1.#
b0 v"
b1101 y"
b1101 9"
b1101 "#
b1100 {"
b1000000100000 5
b1000000100000 >"
b1000000100000 )#
b1000000100000 W#
0I"
1E"
b101011 n"
b1000 J"
b1000 r"
b1000 2#
b1100 ]"
b1100 ^"
b1100 _"
b1100 `"
b11111111111111110000000000000000 K"
b11111111111111110000000000000000 Q"
b11111111111111110000000000000000 s"
b11111111111111110000000000000000 3#
b100000000100000000 N"
b100000000100000000 u"
b100000000100000000 '#
b100000000100000000 0#
b100000000100000000 5#
b101 X"
b10101101000010010000000000001100 @"
b10101101000010010000000000001100 P"
b10101101000010010000000000001100 Y"
b10101101000010010000000000001100 a"
b11000 U"
b11000 V"
b10100 W"
b11000 O"
b10100 F"
b10100 R"
b10100 o"
b0 f#
b0 /
b0 g#
b0 8
0<
04"
b1011 _
b1100 \
b1011 U
b1111 I#
b1101 J#
b1101 L
b1101 A#
b1101 d#
b1111 `#
16"
1=
1*
0)
1+
13
#170
0*
1)
0+
03
#175
b0 f#
b0 /
b0 g#
b0 8
1<
14"
b10000 `#
b1110 J#
b1110 L
b1110 A#
b1110 d#
b10000 I#
b1100 _
b1101 \
b1100 U
06"
0=
1*
0)
1+
13
#180
0*
1)
0+
03
#185
b11000000 /#
b100000001100000000 H"
b100000001100000000 8#
b100000001100000000 $#
0-#
b100000001100000000 ;"
b100000001100000000 \"
b100000001100000000 %#
b100000000100000000 }"
b100000000100000000 7"
b100000000100000000 Z"
b100000000100000000 |"
b1000000000 !#
b1000000000 8"
b1000000000 ["
b1000000000 ~"
06
b1000 w"
16#
0.#
b100000000100000000 K"
b100000000100000000 Q"
b100000000100000000 s"
b100000000100000000 3#
b1000 v"
b11 y"
b11 9"
b11 "#
b1000000000 {"
1I"
0E"
b1101 n"
b1001 J"
b1001 r"
b1001 2#
b0 ]"
b1000000000 ^"
b1000000000 _"
b1000000000 `"
b110 X"
b110101001010010000001000000000 @"
b110101001010010000001000000000 P"
b110101001010010000001000000000 Y"
b110101001010010000001000000000 a"
b11100 U"
b11100 V"
b11000 W"
b11100 O"
b11000 F"
b11000 R"
b11000 o"
b0 f#
b0 /
b0 g#
b0 8
0<
04"
b1101 _
b1110 \
b1101 U
b10001 I#
b1111 J#
b1111 L
b1111 A#
b1111 d#
b10001 `#
16"
1=
1*
0)
1+
13
#190
0*
1)
0+
03
#195
b0 f#
b0 /
b0 g#
b0 8
1<
14"
b10010 `#
b10000 J#
b10000 L
b10000 A#
b10000 d#
b10010 I#
b1110 _
b1111 \
b1110 U
06"
0=
1*
0)
1+
13
#200
0*
1)
0+
03
